RxNorm and Pharmacy Mapping • Rgemini
…
## Create frequency table of `route` column
freqtab_route <- dbGetQuery(db_con, route_query) %>%
  mutate(route = tolower(route)) %>% # minimal standardization, analysts should clean up the raw values as needed
  group_by(route) %>% # can be merged with lookup_pharmacy_route to obtain previous route mappings
  summarise(n = length(unique(genc_id))) %>%
  arrange(-n) %>%
  mutate(
    row_id = 1:length(route),
    SME_confirm = NA, # to be filled out by SME
    n = ifelse(n < 6, "suppressed (n < 6)", n) # apply cell suppression
  )

# # A tibble: 22 × 4
#    route              n row_id SME_confirm
#    <chr>          <int>  <int> <lgl>
#  1 iv              2099      1 NA
#  2 subcut          1167      2 NA
#  3 .route           652      3 NA
#  4 iv continuous    476      4 NA
#  5 sc               330      5 NA
#  6 intravenous      308      6 NA
#  7 iv direct        299      7 NA
#  8 iv infus         239      8 NA
#  9 iv-direct/push   132      9 NA
# 10 subcutaneous     104     10 NA
# ℹ 12 more rows
# ℹ Use `print(n = ...)` to see more rows
…
